-----BEGIN PGP PUBLIC KEY BLOCK-----

mQENBFKPwfEBCACz5Le6cF18lRne/9FwenbAo4xFUQaSZ/s+TlgMotchtLN27q2D TUrvVghycGctmTyEeCktwgbq+nSfbsncab0nc2SNpLBs2Ea5DsUvlNdFCMUCgefo yRvivMPVqm8B5fec05QFzByLozB0BAMuYLeop17NIE5exQqkwlSpx7Nvs/pjTBDv U0SWuq9XQLEohvSeczCQEZLYik5JHammm9cbYTMtNlovmIPEj34F7szBZt82tXzk Fdkr46SVEgKdJzTDLzawFW8BnuS0/INbcvCEhAFKXkRB/EeFQgn3k8zSgTIKZqNW iIg//YuOrVCXcEjhvRGvoSqL3gGXUaJZbN/VABEBAAG0K0RhbmllbCBIaWxsZW5i cmFuZCA8Y29kZXdvcmt4QGJicWxpbnV4Lm9yZz6JATkEEwECACMFAlKPwfECGwMH CwkIBwMCAQYVCAIJCgsEFgIDAQIeAQIXgAAKCRCotfWqBMCpQU0oB/4r6zcqKH3A SiVUuvMLwbzpYI9cMGIpan8qZR27YyYAC8kS35toZKJFtuj82a9+kWTVbbQGse/+ 0/vepT60j1dyZ3Ai341/mhQsfGeFXHYY4SMVyRZ0/YCFDgaYrizCKLW2l9ZeBOav 590K8WCp+BPITtnaiu24PbdQfqjZJjApvcMHzdq6Lro+pog7ovarUI712zQShczd fCgWOCjVQXa+IBwnWiUiN9HB+VthnDZvw50imBK3PdoVoVISUQi56m9g2obgnhi1 bCAii+iMraeIkVXnjkWVgM4AYrB3BrnPS71qkKK6EWIaa7NKYsMMS9geLo4JLC9C +E2flLMVajGdiQIcBBABAgAGBQJSkOBTAAoJEFkc4BR7uuDmGwwQAKPwi6LY8uCF 6aZRpEP+3MqX4D0oO35YKKWsIeHyjxHlCrzi7P0yc8sf2f0jJkB6IKBqNsmL9P/F X/3P5dxLXu73JOtNdpDr7SV5+0FdDsp0jcYFU/8xfmC9GuIubp2h41uPbKXTWkeh MjeS6L45+M5p6Rp94BCrQrET+kQJjqr94EWq8iGjscOkWQSLFSrcFeW0hEPTK8hG B9uhWui+FfEaSwSqZiR6q5q3Sq1UoM2A3vd5tR9aTWxQxu+uYJgFgfLrL6jSaFLX 2l2cHFMMNQ041OJGvGiblFOW8B5Knp8s2RdKpKhx+Dz0uAMY4esTR3y6pluTk99f ijZIMj1qO2ZZKnmIGAsDAeXENgA+IjF4anHZ/dPBA5RL7WqJr59jj20/FJhdpN3j eIc/XzNaaUyniJFApeLEHmMKGkUNaJOFqcfHal/xZAvA5DOS8+WaG/E96bWzFh+f JhNrgsLchZA3IBO2HQ5K1Rw87jIlRrErQomXUCZ7/WOckFocQ2/SNKZmpND+KV7R 3VVd034HZk03ZLeX2zy3cSyeWDSAFUPLqjZf20OguFcC1Zw30uDxBNxV0NnluFkp XANjaFlWu8LGLRtZTTs1WCORiltScmc8YNYRONSEfmHLF54i5BzcA6+guYffWlnT RLEX5nrDVW6bE4KkxSM12OdsI402RXhwiQIcBBABAgAGBQJSkcHMAAoJEDNBxZxr jBTQjYUP/29YfTwHyKHWZfMChO2ODmTiFlqRwbtNAwVUTz6Er76U6lIWJNR62hyu /2lvU3ZTImrX1ERUPc5djtgO3s/enEk3yZF4kbUsR3CH5wM43w/htpPwHLkeVFLK OLD+e1NNNnQHD9/0jTjRcNFDl7AFb7gpwwjF8JPLmqf54bfIlOqGNrxym9c7ApJr dIb1U+z9Ghie7K2ub1u9XzM/bm2rZotHkKgUzdWF8Sum2pKLZc3YfNBDBBWIRx TdTUxtcvUV49h6SociI5qzcBzV4LYmP/SeeuAyKwvNhT6YzK1h/ac29z4i6zUuRv Y0wbbVkRRrypcCNHGjGKuUpq7HznSulWMfripd3K3jzRpB0/39/Nb6NA8kAPd2/M gV+BDxLB65edlxPTyL9kxD0DSjRsHl+fSROnopMuuXvfwb2d/rK63EWqDniNjKzF 5EgBoSUFUyqPETKcjeSBMtxkQHU9XsBtRc0qENdr7EDKFOUEu7rAyasYhU5BNSKJ 0sdg6YoUwEZ5yDL5sW4nnid+D7+gVek1k/ayXfKXVHjOwWtAOWaALtRaBq1PWbje FjJvWDfTsszIWz9RDuJCJ32HuPCKVpRJ2BbaRPjU0n72xnc47PcpPg4vWJfXRA H/zxgyxwSBgq3Vi9hMJGsuARFO1ia/rCi6gKwFS/zBjSXh6jGdVliQIcBBABAgAG BQJSk3bSAAoJEC1V1u5GfmlZ/HUP/jJzYT6kuP91i6J/mcLX9FFkfSLTEIjq+ptn sgsSe5ZmkQLD4PPtj+DtrvdLs2I1Qe7hCGi6tgxq4Bd77kdUv3sDMBpQqGxckEFR mCdjsDYn5EWBLInJnKxd6rLsTbfw68wwrBccucuGLk3GCjjF1FyoXpGXEe6D5lBU pEknY3UOLxJX8+ufNEneXOyIgwn18g2lVkefr9yLIFedwEfpSY7Ooa21xtWSlMQo XtvMBOHW3wOnaATQUSw+b+3tg06ggGEwlDAqE9SMzBhIwaOjiUX84A1q+z11JUsq 1qTldhtmjorRcmKW97n19Yo9I/6EXLugpj1S2Q/CoAYxwGTwZ/qsTVmb92l7vCnJ o/h8Nui+2O0kc94G8uxbTqYu6g10AXTbdNFEY8c+zYRnvYyKEjoMk+NpfxZavRCi K5jC/F43argizEWukliFX2YTEwK+6+6tWJTYWrnZ+xfaquja2T2FnJy5BiqDG8L7 ERTmdFGtr2z0i6m6+QWBVllaPCdwRQuNteEb6L8npmUPitrqF/f2gz3eVLlwlI6T yJVl03bcDsXoQqcncSADNGs5SoWPddyQ3sEu879cDIR33DCwD3hvaUrb/IlKRAlx l5G/AlbkMc06irqFyc/9/oUbeX3yNcUQRNzUTXQNsPjRfrHecMCQKV6yjzJTQcqK vngx/NlA =2Mdj -----END PGP PUBLIC KEY BLOCK----- 
