-----BEGIN PGP PUBLIC KEY BLOCK-----

mQINBFKQ3MMBEADOtnT0GzqG1wt+Eq29bRe453rJWu2r1NS3nMXeEjDDvcJ3c8t1 UAnlUuWPIh3hl2b4HKbMd4lVkx848EraZWKguGfgBluvd2NSiQyHuLB9cEmTBfnR KgdMfqGSN8mim0ckmHrfZZMfhJdYk3Hm5NhvQdjvOG0tDMVX2Qe9nPPWkRgARolB Q4tu4t4ymrWxxOA1ahdIa81qyDfqnbZCbSVNxZiXMRTRNKqAz70/8kjAa1LYIS8N bi8iG4Opq1hCYuFjXO71E4m21u6qiClTGgTfd6M/B7y2b9BcyG5VkjHqxlQDfPXy Q3DjIf71wBmGnw+VswB1WS8GRYTGueDPre1whXFuF5HaN404bc565x3la9Bnvn87 2T97GA0BJr6jh0jOSu9G/JMkOZjUbSZAYQD90Yt7Q/l6nEMErI1Y1FMBMNB5H1NU xWmqXwA83QzYADHTKOZv73IS0Tmbh0Wkn3J76U8pkqj3wux005dx/yxYm0XcB/mG pBbtJ/6aE0pCL2hbr62/X4tMMJW4O1RMCH4sCnGs1Jvh2wjiouoqQYcNfrdhy5vt K/b3adJmJs4/RAwMx92cc5Z0N6fSArggDz5cEA1Aw9i0eDh+Rlhh0wR/F9ZWk0uc msAMouZrb1p6vF5A2fJ0hQkdQRsJcwxgVZn6zVRrWuXofeRjdYQ75PhlgwARAQAB tDZEYW5pZWwgSGlsbGVuYnJhbmQgPGNvZGV3b3JreEBtYXN0ZXIta2V5LmJicWxp bnV4Lm9yZz6JAjkEEwECACMFAlKQ3MMCGwMHCwkIBwMCAQYVCAIJCgsEFgIDAQIe AQIXgAAKCRBZHOAUe7rg5mIpD/wJCkwxLXbuF4ANfMhkDr6kZz5ywyWjUheXW21I mr006QqLCnnK+mAvwcSF04UI1m5bj/ZExZNg+ZrEqApA2ojvsNBe0VB0Vv0w84Nv ZL7lMIm/414Uvdhk/ZrHLHyzRUhUo0ybFfHKoD8qPTKve93rXfiCLbSlSYYDnKZp 4OPURZ6KY1f84jI3L3Q9w9LwrWYXqBQq+I5cgJh8pO5SriTi7DktbPp3dmk83jBJ gbi0FyjIVXq7D2e4OJmHcsRIzGnSzofZFj3dHj+uBZJuSr1ANF2MfBVeHpyVT5mX eTKwGPj+ibIAN/0fTBXi5i10KMpctXBWrim5MUcssprqOEvB5wpKnzB276GgeLbQ sEQ35GeU1tvMZVKup8qQ6fPoPwCpSAwiGsb5OUuPiATr7rz+h+ZLfUJRe4R1xexZ gXfCfPjCSltL0I7b3vCA8ZQVVcBzJFNRrnHZ5kV1JNtQ/q2FvXObZHBOheYoYvoU ooi1lDyEo/AZn3AtA5T6H2Ed6V/tJ6VSLOR/PMyik/TnD+Pp48C9zTzAMVvLeZWk seHaiBe9VACDmytoaK07UG8eruJh3f+0s+vRcbIAe2W3kBUj3bU6n7dQh4uSZxMz aGWJzKV0QkCEgpMq/q5OWuIF02lj15h7n1p1smsQgTWTFltOgHYTKYN1HdzNgtnK /QzJFg== =QHf0 -----END PGP PUBLIC KEY BLOCK----- 
